{
    "influences": {
        "0": {
            "index": 0, 
            "path": "|animRig|Master_CTL_Rig|Master_CTL_Main|DeformationSystem|Spine_Root_joint_M|Spine_RootPart1_joint_M|Spine_RootPart2_joint_M|Spine_Spine1_joint_M|Spine_Spine1Part1_joint_M|Spine_Spine1Part2_joint_M|Spine_Chest_joint_M|Head_Neck_joint_M|Head_NeckPart1_joint_M|Head_NeckPart2_joint_M|Head_Head_joint_M|Head_Eye_joint_L|EyeEnd_L", 
            "pivot": [
                6.068202882566568, 
                152.8835676993253, 
                7.523679063986458
            ]
        }, 
        "1": {
            "index": 1, 
            "path": "|animRig|Master_CTL_Rig|Master_CTL_Main|DeformationSystem|Spine_Root_joint_M|Spine_RootPart1_joint_M|Spine_RootPart2_joint_M|Spine_Spine1_joint_M|Spine_Spine1Part1_joint_M|Spine_Spine1Part2_joint_M|Spine_Chest_joint_M|Head_Neck_joint_M|Head_NeckPart1_joint_M|Head_NeckPart2_joint_M|Head_Head_joint_M|Head_Eye_joint_R|EyeEnd_R", 
            "pivot": [
                -6.068202882566746, 
                152.88356769932494, 
                7.523679063986437
            ]
        }, 
        "2": {
            "index": 2, 
            "path": "|animRig|Master_CTL_Rig|Master_CTL_Main|DeformationSystem|Spine_Root_joint_M|Spine_RootPart1_joint_M|Spine_RootPart2_joint_M|Spine_Spine1_joint_M|Spine_Spine1Part1_joint_M|Spine_Spine1Part2_joint_M|Spine_Chest_joint_M|Head_Neck_joint_M|Head_NeckPart1_joint_M|Head_NeckPart2_joint_M|Head_Head_joint_M|Head_Eye_joint_L", 
            "pivot": [
                6.068202882566646, 
                153.03470307207505, 
                2.6434559038451417
            ]
        }, 
        "3": {
            "index": 3, 
            "path": "|animRig|Master_CTL_Rig|Master_CTL_Main|DeformationSystem|Spine_Root_joint_M|Spine_RootPart1_joint_M|Spine_RootPart2_joint_M|Spine_Spine1_joint_M|Spine_Spine1Part1_joint_M|Spine_Spine1Part2_joint_M|Spine_Chest_joint_M|Head_Neck_joint_M|Head_NeckPart1_joint_M|Head_NeckPart2_joint_M|Head_Head_joint_M|Head_Eye_joint_R", 
            "pivot": [
                -6.068202882566729, 
                153.03470307207516, 
                2.6434559038451177
            ]
        }, 
        "4": {
            "index": 4, 
            "path": "|animRig|Master_CTL_Rig|Master_CTL_Main|DeformationSystem|Spine_Root_joint_M|Spine_RootPart1_joint_M|Spine_RootPart2_joint_M|Spine_Spine1_joint_M|Spine_Spine1Part1_joint_M|Spine_Spine1Part2_joint_M|Spine_Chest_joint_M|Head_Neck_joint_M|Head_NeckPart1_joint_M|Head_NeckPart2_joint_M|Head_Head_joint_M", 
            "pivot": [
                4.595899485304493e-14, 
                147.06890840445809, 
                -4.467685126917892
            ]
        }, 
        "5": {
            "index": 5, 
            "path": "|animRig|Master_CTL_Rig|Master_CTL_Main|DeformationSystem|Spine_Root_joint_M|Spine_RootPart1_joint_M|Spine_RootPart2_joint_M|Spine_Spine1_joint_M|Spine_Spine1Part1_joint_M|Spine_Spine1Part2_joint_M|Spine_Chest_joint_M|Head_Neck_joint_M|Head_NeckPart1_joint_M|Head_NeckPart2_joint_M|Head_Head_joint_M|Head_Jaw_joint_M", 
            "pivot": [
                2.9198144387884173e-15, 
                147.70792001586443, 
                -0.8510762088108967
            ]
        }, 
        "6": {
            "index": 6, 
            "path": "|animRig|Master_CTL_Rig|Master_CTL_Main|DeformationSystem|Spine_Root_joint_M|Spine_RootPart1_joint_M|Spine_RootPart2_joint_M|Spine_Spine1_joint_M|Spine_Spine1Part1_joint_M|Spine_Spine1Part2_joint_M|Spine_Chest_joint_M|Head_Neck_joint_M|Head_NeckPart1_joint_M|Head_NeckPart2_joint_M", 
            "pivot": [
                5.776269419626275e-14, 
                143.72561560314566, 
                -4.644497474851355
            ]
        }, 
        "7": {
            "index": 7, 
            "path": "|animRig|Master_CTL_Rig|Master_CTL_Main|DeformationSystem|Spine_Root_joint_M|Spine_RootPart1_joint_M|Spine_RootPart2_joint_M|Spine_Spine1_joint_M|Spine_Spine1Part1_joint_M|Spine_Spine1Part2_joint_M|Spine_Chest_joint_M|Head_Neck_joint_M|Head_NeckPart1_joint_M|Head_NeckPart2_joint_M|Head_Head_joint_M|Head_Jaw_joint_M|JawEnd_M", 
            "pivot": [
                -4.705487482159681e-14, 
                140.60733827505965, 
                6.242530787790027
            ]
        }
    }, 
    "layers": [
        {
            "dqWeights": [
                0.0, 
                0.0, 
                0.0, 
                0.0, 
                0.0, 
                0.0, 
                0.0, 
                0.0, 
                0.0, 
                0.0, 
                0.0, 
                0.0, 
                0.0, 
                0.0, 
                0.0, 
                0.0, 
                0.0, 
                0.0, 
                0.0, 
                0.0, 
                0.0, 
                0.0, 
                0.0, 
                0.0, 
                0.0, 
                0.0, 
                0.0, 
                0.0, 
                0.0, 
                0.0, 
                0.0, 
                0.0, 
                0.0, 
                0.0, 
                0.0, 
                0.0, 
                0.0, 
                0.0, 
                0.0, 
                0.0, 
                0.0, 
                0.0, 
                0.0, 
                0.0, 
                0.0, 
                0.0, 
                0.0, 
                0.0, 
                0.0, 
                0.0, 
                0.0, 
                0.0, 
                0.0, 
                0.0, 
                0.0, 
                0.0, 
                0.0, 
                0.0, 
                0.0, 
                0.0, 
                0.0, 
                0.0, 
                0.0, 
                0.0, 
                0.0, 
                0.0, 
                0.0, 
                0.0, 
                0.0, 
                0.0, 
                0.0, 
                0.0, 
                0.0, 
                0.0, 
                0.0, 
                0.0, 
                0.0, 
                0.0, 
                0.0, 
                0.0, 
                0.0, 
                0.0, 
                0.0, 
                0.0, 
                0.0, 
                0.0, 
                0.0, 
                0.0, 
                0.0, 
                0.0, 
                0.0, 
                0.0, 
                0.0, 
                0.0, 
                0.0, 
                0.0, 
                0.0, 
                0.0, 
                0.0, 
                0.0, 
                0.0, 
                0.0, 
                0.0, 
                0.0, 
                0.0, 
                0.0, 
                0.0, 
                0.0, 
                0.0, 
                0.0, 
                0.0, 
                0.0, 
                0.0, 
                0.0, 
                0.0, 
                0.0, 
                0.0, 
                0.0, 
                0.0, 
                0.0, 
                0.0, 
                0.0, 
                0.0, 
                0.0, 
                0.0, 
                0.0, 
                0.0, 
                0.0, 
                0.0, 
                0.0, 
                0.0, 
                0.0, 
                0.0, 
                0.0, 
                0.0, 
                0.0, 
                0.0, 
                0.0, 
                0.0, 
                0.0, 
                0.0, 
                0.0, 
                0.0, 
                0.0, 
                0.0, 
                0.0, 
                0.0, 
                0.0, 
                0.0, 
                0.0, 
                0.0, 
                0.0, 
                0.0, 
                0.0, 
                0.0, 
                0.0, 
                0.0, 
                0.0, 
                0.0, 
                0.0, 
                0.0, 
                0.0, 
                0.0, 
                0.0, 
                0.0, 
                0.0, 
                0.0, 
                0.0, 
                0.0
            ], 
            "enabled": true, 
            "influences": [
                {
                    "index": 4, 
                    "name": "|animRig|Master_CTL_Rig|Master_CTL_Main|DeformationSystem|Spine_Root_joint_M|Spine_RootPart1_joint_M|Spine_RootPart2_joint_M|Spine_Spine1_joint_M|Spine_Spine1Part1_joint_M|Spine_Spine1Part2_joint_M|Spine_Chest_joint_M|Head_Neck_joint_M|Head_NeckPart1_joint_M|Head_NeckPart2_joint_M|Head_Head_joint_M", 
                    "weights": [
                        1.0, 
                        1.0, 
                        1.0, 
                        1.0, 
                        1.0, 
                        1.0, 
                        1.0, 
                        1.0, 
                        1.0, 
                        1.0, 
                        1.0, 
                        1.0, 
                        1.0, 
                        1.0, 
                        1.0, 
                        1.0, 
                        1.0, 
                        1.0, 
                        1.0, 
                        1.0, 
                        1.0, 
                        1.0, 
                        1.0, 
                        1.0, 
                        1.0, 
                        1.0, 
                        1.0, 
                        1.0, 
                        1.0, 
                        1.0, 
                        1.0, 
                        1.0, 
                        1.0, 
                        1.0, 
                        1.0, 
                        1.0, 
                        1.0, 
                        1.0, 
                        1.0, 
                        1.0, 
                        1.0, 
                        1.0, 
                        1.0, 
                        1.0, 
                        1.0, 
                        1.0, 
                        1.0, 
                        1.0, 
                        1.0, 
                        1.0, 
                        1.0, 
                        1.0, 
                        1.0, 
                        1.0, 
                        1.0, 
                        1.0, 
                        1.0, 
                        1.0, 
                        1.0, 
                        1.0, 
                        1.0, 
                        1.0, 
                        1.0, 
                        1.0, 
                        1.0, 
                        1.0, 
                        1.0, 
                        1.0, 
                        1.0, 
                        1.0, 
                        1.0, 
                        1.0, 
                        1.0, 
                        1.0, 
                        1.0, 
                        1.0, 
                        1.0, 
                        1.0, 
                        1.0, 
                        1.0, 
                        1.0, 
                        1.0, 
                        1.0, 
                        1.0, 
                        1.0, 
                        1.0, 
                        1.0, 
                        1.0, 
                        1.0, 
                        1.0, 
                        1.0, 
                        1.0, 
                        1.0, 
                        1.0, 
                        1.0, 
                        1.0, 
                        1.0, 
                        1.0, 
                        1.0, 
                        1.0, 
                        1.0, 
                        1.0, 
                        1.0, 
                        1.0, 
                        1.0, 
                        1.0, 
                        1.0, 
                        1.0, 
                        1.0, 
                        1.0, 
                        1.0, 
                        1.0, 
                        1.0, 
                        1.0, 
                        1.0, 
                        1.0, 
                        1.0, 
                        1.0, 
                        1.0, 
                        1.0, 
                        1.0, 
                        1.0, 
                        1.0, 
                        1.0, 
                        1.0, 
                        1.0, 
                        1.0, 
                        1.0, 
                        1.0, 
                        1.0, 
                        1.0, 
                        1.0, 
                        1.0, 
                        1.0, 
                        1.0, 
                        1.0, 
                        1.0, 
                        1.0, 
                        1.0, 
                        1.0, 
                        1.0, 
                        1.0, 
                        1.0, 
                        1.0, 
                        1.0, 
                        1.0, 
                        1.0, 
                        1.0, 
                        1.0, 
                        1.0, 
                        1.0, 
                        1.0, 
                        1.0, 
                        1.0, 
                        1.0, 
                        1.0, 
                        1.0, 
                        1.0, 
                        1.0, 
                        1.0, 
                        1.0, 
                        1.0, 
                        1.0, 
                        1.0, 
                        1.0, 
                        1.0, 
                        1.0, 
                        1.0, 
                        1.0
                    ]
                }
            ], 
            "mask": [], 
            "name": "Base Weights", 
            "opacity": 1.0
        }
    ], 
    "meshInfo": {
        "triangles": [
            35, 
            93, 
            105, 
            105, 
            93, 
            132, 
            93, 
            2, 
            132, 
            132, 
            2, 
            50, 
            50, 
            1, 
            132, 
            132, 
            1, 
            61, 
            105, 
            132, 
            25, 
            25, 
            132, 
            61, 
            33, 
            91, 
            104, 
            104, 
            91, 
            133, 
            91, 
            4, 
            133, 
            133, 
            4, 
            52, 
            52, 
            3, 
            133, 
            133, 
            3, 
            92, 
            104, 
            133, 
            34, 
            34, 
            133, 
            92, 
            84, 
            134, 
            26, 
            26, 
            134, 
            103, 
            84, 
            11, 
            134, 
            134, 
            11, 
            59, 
            59, 
            10, 
            134, 
            134, 
            10, 
            85, 
            134, 
            85, 
            103, 
            103, 
            85, 
            27, 
            85, 
            135, 
            27, 
            27, 
            135, 
            102, 
            85, 
            10, 
            135, 
            135, 
            10, 
            58, 
            58, 
            9, 
            135, 
            135, 
            9, 
            86, 
            135, 
            86, 
            102, 
            102, 
            86, 
            28, 
            86, 
            136, 
            28, 
            28, 
            136, 
            101, 
            86, 
            9, 
            136, 
            136, 
            9, 
            57, 
            57, 
            8, 
            136, 
            136, 
            8, 
            87, 
            136, 
            87, 
            101, 
            101, 
            87, 
            29, 
            29, 
            87, 
            100, 
            100, 
            87, 
            137, 
            87, 
            8, 
            137, 
            137, 
            8, 
            56, 
            56, 
            7, 
            137, 
            137, 
            7, 
            88, 
            100, 
            137, 
            30, 
            30, 
            137, 
            88, 
            30, 
            88, 
            99, 
            99, 
            88, 
            138, 
            88, 
            7, 
            138, 
            138, 
            7, 
            55, 
            55, 
            6, 
            138, 
            138, 
            6, 
            89, 
            138, 
            89, 
            99, 
            99, 
            89, 
            31, 
            89, 
            139, 
            31, 
            31, 
            139, 
            98, 
            89, 
            6, 
            139, 
            139, 
            6, 
            54, 
            54, 
            5, 
            139, 
            139, 
            5, 
            90, 
            139, 
            90, 
            98, 
            98, 
            90, 
            32, 
            90, 
            140, 
            32, 
            32, 
            140, 
            97, 
            90, 
            5, 
            140, 
            140, 
            5, 
            53, 
            53, 
            4, 
            140, 
            140, 
            4, 
            91, 
            140, 
            91, 
            97, 
            97, 
            91, 
            33, 
            25, 
            61, 
            96, 
            96, 
            61, 
            141, 
            61, 
            1, 
            141, 
            141, 
            1, 
            49, 
            49, 
            0, 
            141, 
            141, 
            0, 
            60, 
            96, 
            141, 
            24, 
            24, 
            141, 
            60, 
            34, 
            92, 
            95, 
            95, 
            92, 
            142, 
            92, 
            3, 
            142, 
            142, 
            3, 
            51, 
            51, 
            2, 
            142, 
            142, 
            2, 
            93, 
            95, 
            142, 
            35, 
            35, 
            142, 
            93, 
            0, 
            49, 
            48, 
            48, 
            49, 
            143, 
            1, 
            50, 
            49, 
            49, 
            50, 
            143, 
            2, 
            51, 
            50, 
            50, 
            51, 
            143, 
            3, 
            52, 
            51, 
            51, 
            52, 
            143, 
            4, 
            53, 
            52, 
            52, 
            53, 
            143, 
            5, 
            54, 
            53, 
            53, 
            54, 
            143, 
            6, 
            55, 
            54, 
            54, 
            55, 
            143, 
            7, 
            56, 
            55, 
            55, 
            56, 
            143, 
            8, 
            57, 
            56, 
            56, 
            57, 
            143, 
            9, 
            58, 
            57, 
            57, 
            58, 
            143, 
            10, 
            59, 
            58, 
            58, 
            59, 
            143, 
            11, 
            48, 
            59, 
            59, 
            48, 
            143, 
            60, 
            144, 
            24, 
            24, 
            144, 
            94, 
            60, 
            0, 
            144, 
            144, 
            0, 
            48, 
            48, 
            11, 
            144, 
            144, 
            11, 
            84, 
            144, 
            84, 
            94, 
            94, 
            84, 
            26, 
            23, 
            71, 
            83, 
            83, 
            71, 
            145, 
            71, 
            45, 
            145, 
            145, 
            45, 
            120, 
            145, 
            120, 
            118, 
            118, 
            120, 
            47, 
            83, 
            145, 
            21, 
            21, 
            145, 
            118, 
            45, 
            115, 
            120, 
            120, 
            115, 
            146, 
            115, 
            35, 
            146, 
            146, 
            35, 
            105, 
            146, 
            105, 
            119, 
            119, 
            105, 
            25, 
            120, 
            146, 
            47, 
            47, 
            146, 
            119, 
            20, 
            69, 
            82, 
            82, 
            69, 
            147, 
            69, 
            43, 
            147, 
            147, 
            43, 
            121, 
            147, 
            121, 
            70, 
            70, 
            121, 
            44, 
            82, 
            147, 
            22, 
            22, 
            147, 
            70, 
            43, 
            113, 
            121, 
            121, 
            113, 
            148, 
            113, 
            33, 
            148, 
            148, 
            33, 
            104, 
            148, 
            104, 
            114, 
            114, 
            104, 
            34, 
            121, 
            148, 
            44, 
            44, 
            148, 
            114, 
            62, 
            149, 
            13, 
            13, 
            149, 
            81, 
            36, 
            122, 
            62, 
            62, 
            122, 
            149, 
            122, 
            37, 
            149, 
            149, 
            37, 
            63, 
            149, 
            63, 
            81, 
            81, 
            63, 
            14, 
            106, 
            150, 
            36, 
            36, 
            150, 
            122, 
            26, 
            103, 
            106, 
            106, 
            103, 
            150, 
            103, 
            27, 
            150, 
            150, 
            27, 
            107, 
            150, 
            107, 
            122, 
            122, 
            107, 
            37, 
            63, 
            151, 
            14, 
            14, 
            151, 
            80, 
            37, 
            123, 
            63, 
            63, 
            123, 
            151, 
            123, 
            38, 
            151, 
            151, 
            38, 
            64, 
            151, 
            64, 
            80, 
            80, 
            64, 
            15, 
            107, 
            152, 
            37, 
            37, 
            152, 
            123, 
            27, 
            102, 
            107, 
            107, 
            102, 
            152, 
            102, 
            28, 
            152, 
            152, 
            28, 
            108, 
            152, 
            108, 
            123, 
            123, 
            108, 
            38, 
            64, 
            153, 
            15, 
            15, 
            153, 
            79, 
            38, 
            124, 
            64, 
            64, 
            124, 
            153, 
            124, 
            39, 
            153, 
            153, 
            39, 
            65, 
            153, 
            65, 
            79, 
            79, 
            65, 
            16, 
            108, 
            154, 
            38, 
            38, 
            154, 
            124, 
            28, 
            101, 
            108, 
            108, 
            101, 
            154, 
            101, 
            29, 
            154, 
            154, 
            29, 
            109, 
            154, 
            109, 
            124, 
            124, 
            109, 
            39, 
            16, 
            65, 
            78, 
            78, 
            65, 
            155, 
            65, 
            39, 
            155, 
            155, 
            39, 
            125, 
            155, 
            125, 
            66, 
            66, 
            125, 
            40, 
            78, 
            155, 
            17, 
            17, 
            155, 
            66, 
            39, 
            109, 
            125, 
            125, 
            109, 
            156, 
            109, 
            29, 
            156, 
            156, 
            29, 
            100, 
            156, 
            100, 
            110, 
            110, 
            100, 
            30, 
            125, 
            156, 
            40, 
            40, 
            156, 
            110, 
            17, 
            66, 
            77, 
            77, 
            66, 
            157, 
            66, 
            40, 
            157, 
            157, 
            40, 
            126, 
            157, 
            126, 
            67, 
            67, 
            126, 
            41, 
            77, 
            157, 
            18, 
            18, 
            157, 
            67, 
            40, 
            110, 
            126, 
            126, 
            110, 
            158, 
            110, 
            30, 
            158, 
            158, 
            30, 
            99, 
            158, 
            99, 
            111, 
            111, 
            99, 
            31, 
            126, 
            158, 
            41, 
            41, 
            158, 
            111, 
            67, 
            159, 
            18, 
            18, 
            159, 
            76, 
            41, 
            127, 
            67, 
            67, 
            127, 
            159, 
            127, 
            42, 
            159, 
            159, 
            42, 
            68, 
            159, 
            68, 
            76, 
            76, 
            68, 
            19, 
            111, 
            160, 
            41, 
            41, 
            160, 
            127, 
            31, 
            98, 
            111, 
            111, 
            98, 
            160, 
            98, 
            32, 
            160, 
            160, 
            32, 
            112, 
            160, 
            112, 
            127, 
            127, 
            112, 
            42, 
            68, 
            161, 
            19, 
            19, 
            161, 
            75, 
            42, 
            128, 
            68, 
            68, 
            128, 
            161, 
            128, 
            43, 
            161, 
            161, 
            43, 
            69, 
            161, 
            69, 
            75, 
            75, 
            69, 
            20, 
            112, 
            162, 
            42, 
            42, 
            162, 
            128, 
            32, 
            97, 
            112, 
            112, 
            97, 
            162, 
            97, 
            33, 
            162, 
            162, 
            33, 
            113, 
            162, 
            113, 
            128, 
            128, 
            113, 
            43, 
            21, 
            118, 
            74, 
            74, 
            118, 
            163, 
            118, 
            47, 
            163, 
            163, 
            47, 
            129, 
            163, 
            129, 
            116, 
            116, 
            129, 
            46, 
            74, 
            163, 
            12, 
            12, 
            163, 
            116, 
            47, 
            119, 
            129, 
            129, 
            119, 
            164, 
            119, 
            25, 
            164, 
            164, 
            25, 
            96, 
            164, 
            96, 
            117, 
            117, 
            96, 
            24, 
            129, 
            164, 
            46, 
            46, 
            164, 
            117, 
            22, 
            70, 
            73, 
            73, 
            70, 
            165, 
            70, 
            44, 
            165, 
            165, 
            44, 
            130, 
            165, 
            130, 
            71, 
            71, 
            130, 
            45, 
            73, 
            165, 
            23, 
            23, 
            165, 
            71, 
            44, 
            114, 
            130, 
            130, 
            114, 
            166, 
            114, 
            34, 
            166, 
            166, 
            34, 
            95, 
            166, 
            95, 
            115, 
            115, 
            95, 
            35, 
            130, 
            166, 
            45, 
            45, 
            166, 
            115, 
            116, 
            167, 
            12, 
            12, 
            167, 
            72, 
            46, 
            131, 
            116, 
            116, 
            131, 
            167, 
            131, 
            36, 
            167, 
            167, 
            36, 
            62, 
            167, 
            62, 
            72, 
            72, 
            62, 
            13, 
            117, 
            168, 
            46, 
            46, 
            168, 
            131, 
            24, 
            94, 
            117, 
            117, 
            94, 
            168, 
            94, 
            26, 
            168, 
            168, 
            26, 
            106, 
            168, 
            106, 
            131, 
            131, 
            106, 
            36
        ], 
        "verts": [
            6.397385466129428, 
            152.63125009425744, 
            5.044453345174, 
            6.302603779718085, 
            152.99154643228093, 
            5.1209682615241565, 
            6.067391275717875, 
            153.24210507941427, 
            5.243159546689055, 
            5.754772133374224, 
            153.31578915091748, 
            5.378284767372895, 
            5.448512410737873, 
            153.1928547500459, 
            5.490137740879884, 
            5.230674290008257, 
            152.90624229153104, 
            5.548748290502509, 
            5.159627703578652, 
            152.53274921695547, 
            5.538411332802022, 
            5.254408593837619, 
            152.17245281102137, 
            5.4618951204759405, 
            5.489621566562018, 
            151.92189408934314, 
            5.339705249547748, 
            5.802241200756188, 
            151.84821008301196, 
            5.204581441650365, 
            6.10850039753477, 
            151.97114449716864, 
            5.092725474248024, 
            6.3263395442783805, 
            152.25775697015104, 
            5.034117727766629, 
            7.965243994960059, 
            152.81797414233034, 
            4.072104130025515, 
            7.67894272022823, 
            151.3128926547384, 
            4.03044547803985, 
            6.801112359815579, 
            150.15791729684318, 
            4.26663422299187, 
            5.566963766531538, 
            149.66252332284577, 
            4.7173750891029975, 
            4.307188673047785, 
            149.9594512075078, 
            5.261898929284827, 
            3.3593420629721265, 
            150.96913784392282, 
            5.754298128384562, 
            2.977397142610104, 
            152.4210406107565, 
            6.062634868628168, 
            3.2636984020578153, 
            153.92612187470513, 
            6.104291916225714, 
            4.141529913569358, 
            155.08109671340995, 
            5.868105897928718, 
            7.58329960737103, 
            154.26987671893826, 
            4.38044225373053, 
            5.3756775532311085, 
            155.57649139438664, 
            5.417362239261228, 
            6.635453613314996, 
            155.27956410494394, 
            4.872841255973794, 
            7.077522702695508, 
            152.71045202879705, 
            4.632713939846106, 
            6.859536419409117, 
            153.5390942199462, 
            4.808692173489295, 
            6.9141222355243315, 
            151.85145906253965, 
            4.608937438599373, 
            6.413118844440977, 
            151.19228131357073, 
            4.743735292372579, 
            5.708755598143879, 
            150.9095455625166, 
            5.00098904667793, 
            4.989765942856086, 
            151.07901104856737, 
            5.311763583977285, 
            4.448802449976111, 
            151.65526817974202, 
            5.5927893143136895, 
            4.230815895905626, 
            152.48391067973202, 
            5.768766070116621, 
            4.394215381693237, 
            153.34290374818085, 
            5.792539757279373, 
            4.895219650773915, 
            154.0020810542648, 
            5.657743140832, 
            5.599582977330925, 
            154.28481700629558, 
            5.400490964735049, 
            6.318572700607225, 
            154.11535179987422, 
            5.0897164161915835, 
            7.434200215052549, 
            151.48523392542472, 
            4.215563015172172, 
            6.676954059938159, 
            150.48891366895793, 
            4.419306063935037, 
            5.612336993524195, 
            150.06157076837178, 
            4.808131122717132, 
            4.525613354475387, 
            150.31771019456352, 
            5.277855435615987, 
            3.7079693493610804, 
            151.18869975425363, 
            5.702614757668435, 
            3.3784904797413278, 
            152.44115909630423, 
            5.968594937893675, 
            3.6254639278043492, 
            153.73949198120442, 
            6.0045306734763795, 
            4.382710436474772, 
            154.73581151104895, 
            5.800789048499251, 
            5.447327555630317, 
            155.1631553421682, 
            5.411964018985675, 
            6.534051067971999, 
            154.90701628685954, 
            4.942239774530773, 
            7.681172970465311, 
            152.78356709473462, 
            4.2514990321115445, 
            7.351694994706368, 
            154.03602627567744, 
            4.517482056922971, 
            6.294767051408176, 
            152.46141026094324, 
            5.079457020248336, 
            6.284460238235114, 
            152.7800579330178, 
            5.117173154309974, 
            6.1411598024534575, 
            153.04532142003467, 
            5.203459719335582, 
            5.903264441318666, 
            153.1861236501086, 
            5.315199969133728, 
            5.6345165656636675, 
            153.1647368081455, 
            5.422449940689242, 
            5.406928038871414, 
            152.9868910899348, 
            5.496475631940855, 
            5.281479192143262, 
            152.700240696557, 
            5.517436379044906, 
            5.29178574379092, 
            152.38159295237443, 
            5.4797203416599025, 
            5.435086069155238, 
            152.1163292899779, 
            5.393433809735637, 
            5.67298132624164, 
            151.97552701246465, 
            5.281693597402219, 
            5.941730025558445, 
            151.99691392258592, 
            5.174444911262752, 
            6.169318398796289, 
            152.17475971817788, 
            5.100417684792097, 
            6.697395232156136, 
            152.66491106311477, 
            4.869969386480426, 
            6.5492368134767505, 
            153.22811451030176, 
            4.989578266645497, 
            7.5795156421550525, 
            151.38290642062762, 
            4.105648752383846, 
            6.75067216757851, 
            150.29238487818068, 
            4.328654816736329, 
            5.585397155051986, 
            149.8246361513926, 
            4.7542461177121105, 
            4.395923034107393, 
            150.10499421937317, 
            5.26837948385694, 
            3.5009716804474476, 
            151.05833474688302, 
            5.733301286682833, 
            3.14034179786065, 
            152.42921368349997, 
            6.02443145576146, 
            3.410664815300096, 
            153.85030345518317, 
            6.063762231684052, 
            4.23950970365967, 
            154.94082466681547, 
            5.8407588030544275, 
            5.404785261113818, 
            155.40857387777953, 
            5.415168916772066, 
            6.594259295242994, 
            155.12821636705274, 
            4.901035613661019, 
            7.904509898286965, 
            152.04600797088656, 
            4.015651405106912, 
            6.024295846410945, 
            155.52649256637903, 
            5.147826519305417, 
            7.8550111567967456, 
            153.576334882017, 
            4.196783966412205, 
            3.6406040733135363, 
            154.56966456646396, 
            6.018411682198604, 
            3.0381307041927332, 
            153.19300673989062, 
            6.119086198596424, 
            3.087629443828975, 
            151.6626796427318, 
            5.937953628099983, 
            3.775836310406365, 
            150.38873411769424, 
            5.523550206699916, 
            4.918345496941525, 
            149.71252233707736, 
            4.986910809906348, 
            6.209024979495542, 
            149.81523452458666, 
            4.471831557147528, 
            7.302036873231757, 
            150.66934977538628, 
            4.116325769624687, 
            4.733615737419879, 
            155.4237798939602, 
            5.662904388659353, 
            7.166805709564319, 
            154.85028063432503, 
            4.611190051108572, 
            6.586337675174207, 
            152.08107870124115, 
            4.853811488708423, 
            6.245820725766245, 
            151.63305499485813, 
            4.94543015651927, 
            5.767085280156955, 
            151.4408881164933, 
            5.120277213862931, 
            5.278408476872355, 
            151.55606865934033, 
            5.331498962721046, 
            4.910731007098448, 
            151.94773386498417, 
            5.522502143704173, 
            4.7625724043466064, 
            152.51093759854095, 
            5.642109511505657, 
            4.873630668915293, 
            153.09476986476787, 
            5.658268730585771, 
            5.214148365442005, 
            153.54279308058514, 
            5.566651347864626, 
            5.6928825828111815, 
            153.73496049168875, 
            5.391803192592146, 
            6.181558985048372, 
            153.61977993098984, 
            5.180579998567232, 
            7.042860131845958, 
            152.26986883722702, 
            4.6004945662786, 
            5.969767347968431, 
            154.25628111453432, 
            5.246657884547584, 
            7.01461058168528, 
            153.14327003047967, 
            4.703874569950566, 
            4.609326516158543, 
            153.7101920684633, 
            5.743525524247122, 
            4.265477572314998, 
            152.92449397427595, 
            5.800982596225708, 
            4.293728375106832, 
            152.05109241649808, 
            5.697606886775766, 
            4.686507404346161, 
            151.32401524282994, 
            5.461094070465814, 
            5.3385712529501745, 
            150.9380818265302, 
            5.154822136904075, 
            6.0751992213981065, 
            150.9967022819785, 
            4.860852225637668, 
            6.6990114460516095, 
            151.48417046634444, 
            4.657951524347155, 
            5.233139504373648, 
            154.1976601021746, 
            5.540627718178895, 
            6.62183164077982, 
            153.87034734445157, 
            4.940387359779443, 
            7.208578453159882, 
            151.64411086396652, 
            4.386218195248388, 
            6.562496798657303, 
            150.79405109318714, 
            4.560052522107542, 
            5.654165394614221, 
            150.42944211158178, 
            4.891796829839251, 
            4.726973546966949, 
            150.64798062953702, 
            5.2925654111541895, 
            4.0293603496407835, 
            151.39110795027165, 
            5.654970315750003, 
            3.7482495103060423, 
            152.45970573328444, 
            5.881904791641055, 
            3.9589663739065246, 
            153.56744269521246, 
            5.9125643414814135, 
            4.605049178581005, 
            154.41750185378726, 
            5.738732736681712, 
            5.513379163535066, 
            154.7821117241946, 
            5.40698582497239, 
            6.4405714764545134, 
            154.56357387571015, 
            5.006218698830553, 
            7.849839556468023, 
            152.8039963334992, 
            4.144982387828238, 
            7.419295691741815, 
            152.75184793913462, 
            4.416880803708279, 
            7.489210031029337, 
            154.17487490392386, 
            4.436113998500449, 
            7.138185383673711, 
            153.82044538077358, 
            4.643816655592936, 
            6.992413743435442, 
            154.5367020161232, 
            4.716532845695156, 
            4.893463720461035, 
            155.03142117245665, 
            5.623776839124751, 
            7.109068605833798, 
            150.9300923672982, 
            4.2896454204728975, 
            6.166201353355319, 
            150.19330393398343, 
            4.596319645828197, 
            5.052818042824899, 
            150.10470151606324, 
            5.040642964641902, 
            4.06725157113465, 
            150.6880241297905, 
            5.5035652004210895, 
            3.4735813624886043, 
            151.78697185400907, 
            5.861042833017926, 
            3.4308822533725465, 
            153.10708260500672, 
            6.017293982079019, 
            3.950595362209337, 
            154.29463344475187, 
            5.9304483303289555, 
            7.586082620606899, 
            153.4377541584308, 
            4.359052521023152, 
            6.006846553509264, 
            155.1200249669247, 
            5.179452178755984, 
            7.628781544028273, 
            152.11764353102808, 
            4.202799851556218, 
            6.382536851304252, 
            153.44513428387407, 
            5.081413998253899, 
            5.447419073347055, 
            153.66554042486263, 
            5.4856063982166425, 
            6.434508986185635, 
            151.83832825995594, 
            4.891228183550174, 
            6.014445336219277, 
            151.51007632305905, 
            5.02785695531405, 
            5.5184131565858765, 
            151.47060254766177, 
            5.225808349408714, 
            5.079326765354165, 
            151.73048272168668, 
            5.432048075385378, 
            4.814836460723316, 
            152.2200827411997, 
            5.591310215625143, 
            4.795813906324379, 
            152.80821462652244, 
            5.660924282719183, 
            5.027354618201379, 
            153.33728882425754, 
            5.622232300636599, 
            6.647026535291731, 
            152.95553436079018, 
            4.922150503331585, 
            5.943449337869464, 
            153.705014605326, 
            5.287650966677827, 
            5.814933507063989, 
            152.57755182594255, 
            5.31800354172071, 
            6.66604952579809, 
            152.36740261890097, 
            4.852536276258718, 
            7.095958753356595, 
            154.7228892066853, 
            4.653985789729568, 
            6.831646115436904, 
            154.24762165350484, 
            4.8136454689531, 
            4.79855445952606, 
            155.26438416582621, 
            5.647009736563973, 
            5.040823397394692, 
            154.66971607632303, 
            5.5877052824461995, 
            7.223643748803404, 
            150.77527631814806, 
            4.186737679645333, 
            6.931176447696544, 
            151.17046441858818, 
            4.449425842548598, 
            6.191626962869801, 
            149.96882526788207, 
            4.522402451455321, 
            6.126721960822477, 
            150.54183712985534, 
            4.711078629702762, 
            4.972974692681058, 
            149.87184529243072, 
            5.0087387135059664, 
            5.176783218928305, 
            150.46624169140534, 
            5.090173203590377, 
            3.8942233096016974, 
            150.51032081930813, 
            5.51542938033826, 
            4.335899088580805, 
            150.96393221656936, 
            5.48514013616183, 
            3.2444221375459397, 
            151.71317347008554, 
            5.9067077298459765, 
            3.8293797523247317, 
            151.90155364610948, 
            5.790139188816795, 
            3.1976856026393525, 
            153.15810014081342, 
            6.0777311779031145, 
            3.792949803622452, 
            153.02787136425354, 
            5.92345344644904, 
            3.7665381205807975, 
            154.4579330408197, 
            5.982675930954278, 
            4.236368910520627, 
            154.04108878759018, 
            5.849358069600363, 
            7.745758147876411, 
            153.52003659018874, 
            4.262703330161944, 
            7.338164914980281, 
            153.3100000188802, 
            4.508645013305534, 
            6.017206650187326, 
            155.3613648846086, 
            5.160673544652356, 
            5.990760885072672, 
            154.74531259107044, 
            5.208608051195046, 
            7.79249449662482, 
            152.0751099965487, 
            4.091678359401177, 
            7.374595025761428, 
            152.18368242746087, 
            4.375329101769697
        ]
    }
}